Section 2 Introduction to R | Introduction to R for social science
…
Trump <-base::readRDS(url("https://slcladal.github.io/data/Trump.rda", "rb"))
# inspect data
str(Trump)

## 'data.frame':    2694 obs. of  1 variable:
##  $ SPEECH: chr  "...Thank you so much.  That's so nice.  Isn't he a great guy.  He doesn't get a fair press; he doesn't get it. "| __truncated__ "With that said, our country is really headed in the wrong direction with a president who is doing an absolutely"| __truncated__ "And I'm a conservative, actually very conservative, and I'm a Republican.  And I'm very disappointed by our Rep"| __truncated__ "You look at Obamacare.  A total catastrophe and by the way it really kicks in in '16 and it is going to be a di"| __truncated__ ...

It is very easy to extract frequency information and to create frequency lists. We can do this by first using the unnest_tokens function which splits texts into individual words, an then use the count function to get the raw frequencies of all word types in a text.

Trump %>%
  tibble(text = SPEECH) %>%
  unnest_tokens(word, text) %>%
  dplyr::count(word, sort=T)

## # A tibble: 6,102 × 2
##    word      n
##    <chr> <int>
##  1 the    5924
##  2 to     5460
##  3 and    5438
##  4 i      4873
##  5 a      3592
##  6 you    3055
##  7 of     2953
##  8 we     2565
##  9 it     2421
## 10 that   2317
## # ℹ 6,092 more rows
…
